\relax 
\catcode \string ``=12
\abx@aux@sortscheme{none}
\abx@aux@refcontext{none/global/}
\@writefile{toc}{\select@language{hungarian} \boolfalse {citerequest}\boolfalse {citetracker}\boolfalse {pagetracker}\boolfalse {backtracker}\relax }
\@writefile{lof}{\select@language{hungarian} \boolfalse {citerequest}\boolfalse {citetracker}\boolfalse {pagetracker}\boolfalse {backtracker}\relax }
\@writefile{lot}{\select@language{hungarian} \boolfalse {citerequest}\boolfalse {citetracker}\boolfalse {pagetracker}\boolfalse {backtracker}\relax }
\abx@aux@cite{JS_history}
\abx@aux@segm{0}{0}{JS_history}
\abx@aux@cite{JS_evolution}
\abx@aux@segm{0}{0}{JS_evolution}
\abx@aux@cite{ChromeV8}
\abx@aux@segm{0}{0}{ChromeV8}
\abx@aux@cite{NodeJSAbout}
\abx@aux@segm{0}{0}{NodeJSAbout}
\@writefile{toc}{\defcounter {refsection}{0}\relax }\@writefile{toc}{\select@language{hungarian} \contentsline {chapter}{\numberline {1}Bevezet\IeC {\'e}s}{1}}
\@writefile{lof}{\defcounter {refsection}{0}\relax }\@writefile{lof}{\select@language{hungarian} \addvspace {10\p@ }}
\@writefile{lot}{\defcounter {refsection}{0}\relax }\@writefile{lot}{\select@language{hungarian} \addvspace {10\p@ }}
\@writefile{toc}{\defcounter {refsection}{0}\relax }\@writefile{toc}{\select@language{hungarian} \contentsline {section}{\numberline {1.1}P\IeC {\'a}r sz\IeC {\'o} a JavaScriptr\IeC {\H o}l}{1}}
\abx@aux@cite{JS_MODULARITY}
\abx@aux@segm{0}{0}{JS_MODULARITY}
\abx@aux@cite{webpack}
\abx@aux@segm{0}{0}{webpack}
\abx@aux@cite{transpile_to_js}
\abx@aux@segm{0}{0}{transpile_to_js}
\@writefile{toc}{\defcounter {refsection}{0}\relax }\@writefile{toc}{\select@language{hungarian} \contentsline {section}{\numberline {1.2}A feladat le\IeC {\'\i }r\IeC {\'a}sa}{2}}
\@writefile{toc}{\defcounter {refsection}{0}\relax }\@writefile{toc}{\select@language{hungarian} \contentsline {section}{\numberline {1.3}A t\IeC {\'e}mav\IeC {\'a}laszt\IeC {\'a}s indokl\IeC {\'a}sa}{3}}
\@writefile{toc}{\defcounter {refsection}{0}\relax }\@writefile{toc}{\select@language{hungarian} \contentsline {part}{I.\hspace  {1em}Felhaszn\IeC {\'a}l\IeC {\'o}i dokument\IeC {\'a}ci\IeC {\'o}}{5}}
\abx@aux@cite{napo_font}
\abx@aux@segm{0}{0}{napo_font}
\@writefile{toc}{\defcounter {refsection}{0}\relax }\@writefile{toc}{\select@language{hungarian} \contentsline {chapter}{\numberline {2}Szoftver bemutat\IeC {\'a}sa}{7}}
\@writefile{lof}{\defcounter {refsection}{0}\relax }\@writefile{lof}{\select@language{hungarian} \addvspace {10\p@ }}
\@writefile{lot}{\defcounter {refsection}{0}\relax }\@writefile{lot}{\select@language{hungarian} \addvspace {10\p@ }}
\@writefile{lof}{\defcounter {refsection}{0}\relax }\@writefile{lof}{\select@language{hungarian} \contentsline {figure}{\numberline {2.1}{\ignorespaces Az alkalmaz\IeC {\'a}s ikonja\cite {napo_font}}}{7}}
\@writefile{toc}{\defcounter {refsection}{0}\relax }\@writefile{toc}{\select@language{hungarian} \contentsline {chapter}{\numberline {3}Els\IeC {\H o} l\IeC {\'e}p\IeC {\'e}sek}{9}}
\@writefile{lof}{\defcounter {refsection}{0}\relax }\@writefile{lof}{\select@language{hungarian} \addvspace {10\p@ }}
\@writefile{lot}{\defcounter {refsection}{0}\relax }\@writefile{lot}{\select@language{hungarian} \addvspace {10\p@ }}
\@writefile{toc}{\defcounter {refsection}{0}\relax }\@writefile{toc}{\select@language{hungarian} \contentsline {section}{\numberline {3.1}A haszn\IeC {\'a}lathoz sz\IeC {\"u}ks\IeC {\'e}ges el\IeC {\H o}felt\IeC {\'e}telek}{9}}
\@writefile{toc}{\defcounter {refsection}{0}\relax }\@writefile{toc}{\select@language{hungarian} \contentsline {section}{\numberline {3.2}Telep\IeC {\'\i }t\IeC {\'e}s}{9}}
\@writefile{toc}{\defcounter {refsection}{0}\relax }\@writefile{toc}{\select@language{hungarian} \contentsline {paragraph}{Windowson}{9}}
\@writefile{toc}{\defcounter {refsection}{0}\relax }\@writefile{toc}{\select@language{hungarian} \contentsline {paragraph}{Mac}{9}}
\@writefile{toc}{\defcounter {refsection}{0}\relax }\@writefile{toc}{\select@language{hungarian} \contentsline {paragraph}{Linuxos}{9}}
\@writefile{toc}{\defcounter {refsection}{0}\relax }\@writefile{toc}{\select@language{hungarian} \contentsline {paragraph}{Android}{9}}
\@writefile{toc}{\defcounter {refsection}{0}\relax }\@writefile{toc}{\select@language{hungarian} \contentsline {paragraph}{iOS}{9}}
\@writefile{lof}{\defcounter {refsection}{0}\relax }\@writefile{lof}{\select@language{hungarian} \contentsline {figure}{\numberline {3.1}{\ignorespaces Telep\IeC {\'\i }t\IeC {\'e}s iPhone-ra}}{10}}
\@writefile{toc}{\defcounter {refsection}{0}\relax }\@writefile{toc}{\select@language{hungarian} \contentsline {chapter}{\numberline {4}Az alkalmaz\IeC {\'a}s haszn\IeC {\'a}lata}{11}}
\@writefile{lof}{\defcounter {refsection}{0}\relax }\@writefile{lof}{\select@language{hungarian} \addvspace {10\p@ }}
\@writefile{lot}{\defcounter {refsection}{0}\relax }\@writefile{lot}{\select@language{hungarian} \addvspace {10\p@ }}
\@writefile{toc}{\defcounter {refsection}{0}\relax }\@writefile{toc}{\select@language{hungarian} \contentsline {section}{\numberline {4.1}\IeC {\'A}ltal\IeC {\'a}nos m\IeC {\H u}veletek}{11}}
\@writefile{toc}{\defcounter {refsection}{0}\relax }\@writefile{toc}{\select@language{hungarian} \contentsline {subsection}{\numberline {4.1.1}Regisztr\IeC {\'a}ci\IeC {\'o}}{11}}
\@writefile{toc}{\defcounter {refsection}{0}\relax }\@writefile{toc}{\select@language{hungarian} \contentsline {subsection}{\numberline {4.1.2}Men\IeC {\"u} kezel\IeC {\'e}se}{11}}
\@writefile{toc}{\defcounter {refsection}{0}\relax }\@writefile{toc}{\select@language{hungarian} \contentsline {subsection}{\numberline {4.1.3}Kijelentkez\IeC {\'e}s}{11}}
\@writefile{lof}{\defcounter {refsection}{0}\relax }\@writefile{lof}{\select@language{hungarian} \contentsline {figure}{\numberline {4.1}{\ignorespaces Men\IeC {\"u}}}{12}}
\@writefile{toc}{\defcounter {refsection}{0}\relax }\@writefile{toc}{\select@language{hungarian} \contentsline {subsection}{\numberline {4.1.4}Bejelentkez\IeC {\'e}s}{12}}
\@writefile{toc}{\defcounter {refsection}{0}\relax }\@writefile{toc}{\select@language{hungarian} \contentsline {section}{\numberline {4.2}Tranzakci\IeC {\'o}k kezel\IeC {\'e}se}{12}}
\@writefile{toc}{\defcounter {refsection}{0}\relax }\@writefile{toc}{\select@language{hungarian} \contentsline {subsection}{\numberline {4.2.1}Tranzakci\IeC {\'o}k list\IeC {\'a}z\IeC {\'a}sa}{12}}
\@writefile{lof}{\defcounter {refsection}{0}\relax }\@writefile{lof}{\select@language{hungarian} \contentsline {figure}{\numberline {4.2}{\ignorespaces Tranzakci\IeC {\'o} kezel\IeC {\'e}se (l\IeC {\'e}trehoz\IeC {\'a}s, szerkeszt\IeC {\'e}s, t\IeC {\"o}rl\IeC {\'e}s)}}{13}}
\@writefile{toc}{\defcounter {refsection}{0}\relax }\@writefile{toc}{\select@language{hungarian} \contentsline {subsection}{\numberline {4.2.2}Tranzakci\IeC {\'o} l\IeC {\'e}trehoz\IeC {\'a}sa}{13}}
\@writefile{lof}{\defcounter {refsection}{0}\relax }\@writefile{lof}{\select@language{hungarian} \contentsline {figure}{\numberline {4.3}{\ignorespaces Tranzakci\IeC {\'o} l\IeC {\'e}trehoz\IeC {\'a}sa}}{14}}
\@writefile{toc}{\defcounter {refsection}{0}\relax }\@writefile{toc}{\select@language{hungarian} \contentsline {subsection}{\numberline {4.2.3}Tranzakci\IeC {\'o} m\IeC {\'o}dos\IeC {\'\i }t\IeC {\'a}sa}{14}}
\@writefile{toc}{\defcounter {refsection}{0}\relax }\@writefile{toc}{\select@language{hungarian} \contentsline {subsection}{\numberline {4.2.4}Tranzakci\IeC {\'o} t\IeC {\"o}rl\IeC {\'e}se}{15}}
\@writefile{toc}{\defcounter {refsection}{0}\relax }\@writefile{toc}{\select@language{hungarian} \contentsline {subsection}{\numberline {4.2.5}Off-line m\IeC {\'o}d}{15}}
\@writefile{toc}{\defcounter {refsection}{0}\relax }\@writefile{toc}{\select@language{hungarian} \contentsline {subsection}{\numberline {4.2.6}Kateg\IeC {\'o}ri\IeC {\'a}k k\IeC {\'e}sz\IeC {\'\i }t\IeC {\'e}se}{15}}
\@writefile{lof}{\defcounter {refsection}{0}\relax }\@writefile{lof}{\select@language{hungarian} \contentsline {figure}{\numberline {4.4}{\ignorespaces Kateg\IeC {\'o}ria k\IeC {\'e}sz\IeC {\'\i }t\IeC {\'e}se}}{16}}
\@writefile{toc}{\defcounter {refsection}{0}\relax }\@writefile{toc}{\select@language{hungarian} \contentsline {section}{\numberline {4.3}Ism\IeC {\'e}tl\IeC {\H o}d\IeC {\H o} tranzakci\IeC {\'o}k}{16}}
\@writefile{toc}{\defcounter {refsection}{0}\relax }\@writefile{toc}{\select@language{hungarian} \contentsline {section}{\numberline {4.4}Statisztik\IeC {\'a}k}{17}}
\@writefile{toc}{\defcounter {refsection}{0}\relax }\@writefile{toc}{\select@language{hungarian} \contentsline {section}{\numberline {4.5}Sp\IeC {\'o}rol\IeC {\'a}sok}{17}}
\@writefile{lof}{\defcounter {refsection}{0}\relax }\@writefile{lof}{\select@language{hungarian} \contentsline {figure}{\numberline {4.5}{\ignorespaces Sp\IeC {\'o}rol\IeC {\'a}s \IeC {\'a}llapot mutat\IeC {\'o}}}{18}}
\@writefile{toc}{\defcounter {refsection}{0}\relax }\@writefile{toc}{\select@language{hungarian} \contentsline {subsection}{\numberline {4.5.1}Sp\IeC {\'o}rol\IeC {\'a}s l\IeC {\'e}trehoz\IeC {\'a}sa}{18}}
\@writefile{toc}{\defcounter {refsection}{0}\relax }\@writefile{toc}{\select@language{hungarian} \contentsline {subsection}{\numberline {4.5.2}Sp\IeC {\'o}rol\IeC {\'a}sok megtekint\IeC {\'e}se, m\IeC {\'o}dos\IeC {\'\i }t\IeC {\'a}sa}{18}}
\@writefile{toc}{\defcounter {refsection}{0}\relax }\@writefile{toc}{\select@language{hungarian} \contentsline {subsection}{\numberline {4.5.3}Szab\IeC {\'a}lyszer\IeC {\H u}s\IeC {\'e}gek}{19}}
\@writefile{toc}{\defcounter {refsection}{0}\relax }\@writefile{toc}{\select@language{hungarian} \contentsline {section}{\numberline {4.6}Csoportok}{20}}
\@writefile{lof}{\defcounter {refsection}{0}\relax }\@writefile{lof}{\select@language{hungarian} \contentsline {figure}{\numberline {4.6}{\ignorespaces Csoport kezel\IeC {\'e}se}}{21}}
\@writefile{toc}{\defcounter {refsection}{0}\relax }\@writefile{toc}{\select@language{hungarian} \contentsline {part}{II.\hspace  {1em}Fejleszt\IeC {\H o}i dokument\IeC {\'a}ci\IeC {\'o}}{23}}
\@writefile{toc}{\defcounter {refsection}{0}\relax }\@writefile{toc}{\select@language{hungarian} \contentsline {chapter}{\numberline {5}Specifik\IeC {\'a}ci\IeC {\'o}}{25}}
\@writefile{lof}{\defcounter {refsection}{0}\relax }\@writefile{lof}{\select@language{hungarian} \addvspace {10\p@ }}
\@writefile{lot}{\defcounter {refsection}{0}\relax }\@writefile{lot}{\select@language{hungarian} \addvspace {10\p@ }}
\@writefile{toc}{\defcounter {refsection}{0}\relax }\@writefile{toc}{\select@language{hungarian} \contentsline {section}{\numberline {5.1}Feladat}{25}}
\@writefile{toc}{\defcounter {refsection}{0}\relax }\@writefile{toc}{\select@language{hungarian} \contentsline {section}{\numberline {5.2}Feladat elemz\IeC {\'e}se}{25}}
\@writefile{lof}{\defcounter {refsection}{0}\relax }\@writefile{lof}{\select@language{hungarian} \contentsline {figure}{\numberline {5.1}{\ignorespaces Haszn\IeC {\'a}lati esetek}}{26}}
\abx@aux@cite{angular_docs}
\abx@aux@segm{0}{0}{angular_docs}
\abx@aux@cite{angular}
\abx@aux@segm{0}{0}{angular}
\abx@aux@segm{0}{0}{angular}
\@writefile{toc}{\defcounter {refsection}{0}\relax }\@writefile{toc}{\select@language{hungarian} \contentsline {section}{\numberline {5.3}Eszk\IeC {\"o}z\IeC {\"o}k}{27}}
\@writefile{toc}{\defcounter {refsection}{0}\relax }\@writefile{toc}{\select@language{hungarian} \contentsline {paragraph}{Angular\cite {angular_docs}}{27}}
\abx@aux@cite{ionic_docs}
\abx@aux@segm{0}{0}{ionic_docs}
\abx@aux@cite{electron_docs}
\abx@aux@segm{0}{0}{electron_docs}
\abx@aux@cite{cordova_docs}
\abx@aux@segm{0}{0}{cordova_docs}
\@writefile{toc}{\defcounter {refsection}{0}\relax }\@writefile{toc}{\select@language{hungarian} \contentsline {paragraph}{Ionic\cite {ionic_docs}}{28}}
\@writefile{toc}{\defcounter {refsection}{0}\relax }\@writefile{toc}{\select@language{hungarian} \contentsline {paragraph}{Electron\cite {electron_docs}}{28}}
\abx@aux@cite{express_docs}
\abx@aux@segm{0}{0}{express_docs}
\abx@aux@cite{jwt_docs}
\abx@aux@segm{0}{0}{jwt_docs}
\abx@aux@cite{passport_docs}
\abx@aux@segm{0}{0}{passport_docs}
\@writefile{toc}{\defcounter {refsection}{0}\relax }\@writefile{toc}{\select@language{hungarian} \contentsline {paragraph}{Cordova\cite {cordova_docs}}{29}}
\@writefile{toc}{\defcounter {refsection}{0}\relax }\@writefile{toc}{\select@language{hungarian} \contentsline {paragraph}{Express\cite {express_docs}}{29}}
\@writefile{toc}{\defcounter {refsection}{0}\relax }\@writefile{toc}{\select@language{hungarian} \contentsline {paragraph}{JWT\cite {jwt_docs}}{29}}
\@writefile{toc}{\defcounter {refsection}{0}\relax }\@writefile{toc}{\select@language{hungarian} \contentsline {paragraph}{Passport\cite {passport_docs}}{29}}
\abx@aux@cite{bcrypt_docs}
\abx@aux@segm{0}{0}{bcrypt_docs}
\abx@aux@cite{mongoose_docs}
\abx@aux@segm{0}{0}{mongoose_docs}
\abx@aux@cite{node_schedule_docs}
\abx@aux@segm{0}{0}{node_schedule_docs}
\abx@aux@cite{jasmine_docs}
\abx@aux@segm{0}{0}{jasmine_docs}
\abx@aux@cite{karma_docs}
\abx@aux@segm{0}{0}{karma_docs}
\abx@aux@cite{mocha_docs}
\abx@aux@segm{0}{0}{mocha_docs}
\abx@aux@cite{chai_docs}
\abx@aux@segm{0}{0}{chai_docs}
\abx@aux@cite{sinon_docs}
\abx@aux@segm{0}{0}{sinon_docs}
\abx@aux@cite{lodash_docs}
\abx@aux@segm{0}{0}{lodash_docs}
\abx@aux@cite{moment_docs}
\abx@aux@segm{0}{0}{moment_docs}
\abx@aux@cite{gulp_docs}
\abx@aux@segm{0}{0}{gulp_docs}
\abx@aux@cite{mongodb}
\abx@aux@segm{0}{0}{mongodb}
\@writefile{toc}{\defcounter {refsection}{0}\relax }\@writefile{toc}{\select@language{hungarian} \contentsline {paragraph}{BCrypt\cite {bcrypt_docs}}{30}}
\@writefile{toc}{\defcounter {refsection}{0}\relax }\@writefile{toc}{\select@language{hungarian} \contentsline {paragraph}{Mongoose\cite {mongoose_docs}}{30}}
\@writefile{toc}{\defcounter {refsection}{0}\relax }\@writefile{toc}{\select@language{hungarian} \contentsline {paragraph}{Node Schedule\cite {node_schedule_docs}}{30}}
\@writefile{toc}{\defcounter {refsection}{0}\relax }\@writefile{toc}{\select@language{hungarian} \contentsline {paragraph}{Jasmine\cite {jasmine_docs}, Karma\cite {karma_docs}, Mocha\cite {mocha_docs}, Chai\cite {chai_docs}, Sinon\cite {sinon_docs}}{30}}
\@writefile{toc}{\defcounter {refsection}{0}\relax }\@writefile{toc}{\select@language{hungarian} \contentsline {paragraph}{Lodash\cite {lodash_docs}, Moment\cite {moment_docs}}{30}}
\@writefile{toc}{\defcounter {refsection}{0}\relax }\@writefile{toc}{\select@language{hungarian} \contentsline {paragraph}{Gulp\cite {gulp_docs}}{30}}
\@writefile{toc}{\defcounter {refsection}{0}\relax }\@writefile{toc}{\select@language{hungarian} \contentsline {section}{\numberline {5.4}Adatb\IeC {\'a}zis, s\IeC {\'e}m\IeC {\'a}k}{31}}
\@writefile{toc}{\defcounter {refsection}{0}\relax }\@writefile{toc}{\select@language{hungarian} \contentsline {subsection}{\numberline {5.4.1}Users}{31}}
\@writefile{lof}{\defcounter {refsection}{0}\relax }\@writefile{lof}{\select@language{hungarian} \contentsline {figure}{\numberline {5.2}{\ignorespaces Felhaszn\IeC {\'a}l\IeC {\'o}k adatb\IeC {\'a}zis s\IeC {\'e}m\IeC {\'a}ja}}{31}}
\@writefile{toc}{\defcounter {refsection}{0}\relax }\@writefile{toc}{\select@language{hungarian} \contentsline {subsection}{\numberline {5.4.2}Transactions}{31}}
\@writefile{lof}{\defcounter {refsection}{0}\relax }\@writefile{lof}{\select@language{hungarian} \contentsline {figure}{\numberline {5.3}{\ignorespaces Tranzakci\IeC {\'o}k adatb\IeC {\'a}zis s\IeC {\'e}m\IeC {\'a}ja}}{32}}
\@writefile{toc}{\defcounter {refsection}{0}\relax }\@writefile{toc}{\select@language{hungarian} \contentsline {subsection}{\numberline {5.4.3}RepeatingTransactions}{32}}
\@writefile{lof}{\defcounter {refsection}{0}\relax }\@writefile{lof}{\select@language{hungarian} \contentsline {figure}{\numberline {5.4}{\ignorespaces Ism\IeC {\'e}tl\IeC {\H o}d\IeC {\H o} tranzakci\IeC {\'o}k adatb\IeC {\'a}zis s\IeC {\'e}m\IeC {\'a}ja}}{32}}
\@writefile{toc}{\defcounter {refsection}{0}\relax }\@writefile{toc}{\select@language{hungarian} \contentsline {subsection}{\numberline {5.4.4}Group}{33}}
\@writefile{lof}{\defcounter {refsection}{0}\relax }\@writefile{lof}{\select@language{hungarian} \contentsline {figure}{\numberline {5.5}{\ignorespaces Csoportok adatb\IeC {\'a}zis s\IeC {\'e}m\IeC {\'a}ja}}{33}}
\@writefile{toc}{\defcounter {refsection}{0}\relax }\@writefile{toc}{\select@language{hungarian} \contentsline {subsection}{\numberline {5.4.5}Savings}{33}}
\@writefile{lof}{\defcounter {refsection}{0}\relax }\@writefile{lof}{\select@language{hungarian} \contentsline {figure}{\numberline {5.6}{\ignorespaces Sp\IeC {\'o}rol\IeC {\'a}s adatb\IeC {\'a}zis s\IeC {\'e}m\IeC {\'a}ja}}{33}}
\@writefile{toc}{\defcounter {refsection}{0}\relax }\@writefile{toc}{\select@language{hungarian} \contentsline {section}{\numberline {5.5}Szerver}{33}}
\@writefile{lof}{\defcounter {refsection}{0}\relax }\@writefile{lof}{\select@language{hungarian} \contentsline {figure}{\numberline {5.7}{\ignorespaces Teljes adatb\IeC {\'a}zis s\IeC {\'e}ma}}{34}}
\@writefile{toc}{\defcounter {refsection}{0}\relax }\@writefile{toc}{\select@language{hungarian} \contentsline {subsection}{\numberline {5.5.1}Fel\IeC {\'e}p\IeC {\'\i }t\IeC {\'e}s}{34}}
\@writefile{toc}{\defcounter {refsection}{0}\relax }\@writefile{toc}{\select@language{hungarian} \contentsline {subsection}{\numberline {5.5.2}Authentik\IeC {\'a}ci\IeC {\'o}}{35}}
\@writefile{toc}{\defcounter {refsection}{0}\relax }\@writefile{toc}{\select@language{hungarian} \contentsline {subsection}{\numberline {5.5.3}Controllerek}{35}}
\@writefile{toc}{\defcounter {refsection}{0}\relax }\@writefile{toc}{\select@language{hungarian} \contentsline {subsubsection}{User}{35}}
\abx@aux@cite{mongo_aggregation}
\abx@aux@segm{0}{0}{mongo_aggregation}
\@writefile{toc}{\defcounter {refsection}{0}\relax }\@writefile{toc}{\select@language{hungarian} \contentsline {subsubsection}{Transaction}{36}}
\@writefile{toc}{\defcounter {refsection}{0}\relax }\@writefile{toc}{\select@language{hungarian} \contentsline {subsubsection}{Category}{36}}
\@writefile{toc}{\defcounter {refsection}{0}\relax }\@writefile{toc}{\select@language{hungarian} \contentsline {subsubsection}{RepeatingTransaction}{36}}
\@writefile{toc}{\defcounter {refsection}{0}\relax }\@writefile{toc}{\select@language{hungarian} \contentsline {subsubsection}{Group}{36}}
\@writefile{toc}{\defcounter {refsection}{0}\relax }\@writefile{toc}{\select@language{hungarian} \contentsline {subsubsection}{Saving}{36}}
\@writefile{toc}{\defcounter {refsection}{0}\relax }\@writefile{toc}{\select@language{hungarian} \contentsline {subsubsection}{Statistics}{37}}
\@writefile{toc}{\defcounter {refsection}{0}\relax }\@writefile{toc}{\select@language{hungarian} \contentsline {subsection}{\numberline {5.5.4}Route-ok}{37}}
\@writefile{toc}{\defcounter {refsection}{0}\relax }\@writefile{toc}{\select@language{hungarian} \contentsline {subsection}{\numberline {5.5.5}Modellek}{37}}
\@writefile{toc}{\defcounter {refsection}{0}\relax }\@writefile{toc}{\select@language{hungarian} \contentsline {paragraph}{Valid\IeC {\'a}l\IeC {\'a}s}{37}}
\@writefile{toc}{\defcounter {refsection}{0}\relax }\@writefile{toc}{\select@language{hungarian} \contentsline {subsection}{\numberline {5.5.6}Util-ok}{37}}
\newlabel{table:routes}{{5.5.4}{38}}
\@writefile{lot}{\defcounter {refsection}{0}\relax }\@writefile{lot}{\select@language{hungarian} \contentsline {table}{\numberline {5.1}{\ignorespaces Router t\IeC {\'a}bl\IeC {\'a}zat}}{38}}
\abx@aux@cite{auth}
\abx@aux@segm{0}{0}{auth}
\abx@aux@cite{ionic_app_scripts}
\abx@aux@segm{0}{0}{ionic_app_scripts}
\abx@aux@cite{ng2-charts_docs}
\abx@aux@segm{0}{0}{ng2-charts_docs}
\abx@aux@cite{node_7}
\abx@aux@segm{0}{0}{node_7}
\abx@aux@cite{mongo_install}
\abx@aux@segm{0}{0}{mongo_install}
\abx@aux@cite{cordova_install}
\abx@aux@segm{0}{0}{cordova_install}
\abx@aux@cite{ionic_start}
\abx@aux@segm{0}{0}{ionic_start}
\@writefile{toc}{\defcounter {refsection}{0}\relax }\@writefile{toc}{\select@language{hungarian} \contentsline {section}{\numberline {5.6}El\IeC {\H o}k\IeC {\'e}sz\IeC {\"u}letek}{39}}
\@writefile{toc}{\defcounter {refsection}{0}\relax }\@writefile{toc}{\select@language{hungarian} \contentsline {subsection}{\numberline {5.6.1}Eszk\IeC {\"o}z\IeC {\"o}k telep\IeC {\'\i }t\IeC {\'e}se}{39}}
\@writefile{toc}{\defcounter {refsection}{0}\relax }\@writefile{toc}{\select@language{hungarian} \contentsline {subsection}{\numberline {5.6.2}K\IeC {\"o}rnyezet kialak\IeC {\'\i }t\IeC {\'a}sa}{39}}
\abx@aux@cite{clean_code}
\abx@aux@segm{0}{0}{clean_code}
\@writefile{lof}{\defcounter {refsection}{0}\relax }\@writefile{lof}{\select@language{hungarian} \contentsline {figure}{\numberline {5.8}{\ignorespaces K\IeC {\"o}nyvt\IeC {\'a}rszerkezet fel\IeC {\'e}p\IeC {\'\i }t\IeC {\'e}si terve "Savings" p\IeC {\'e}ld\IeC {\'a}val bemutatva}}{40}}
\newlabel{fig:directory}{{5.8}{40}}
\@writefile{toc}{\defcounter {refsection}{0}\relax }\@writefile{toc}{\select@language{hungarian} \contentsline {section}{\numberline {5.7}Fejleszt\IeC {\'e}s menete}{40}}
\@writefile{toc}{\defcounter {refsection}{0}\relax }\@writefile{toc}{\select@language{hungarian} \contentsline {subsection}{\numberline {5.7.1}K\IeC {\'o}dol\IeC {\'a}si st\IeC {\'\i }lus}{40}}
\abx@aux@cite{git}
\abx@aux@segm{0}{0}{git}
\@writefile{toc}{\defcounter {refsection}{0}\relax }\@writefile{toc}{\select@language{hungarian} \contentsline {subsection}{\numberline {5.7.2}Szoftver technol\IeC {\'o}giai megold\IeC {\'a}sok}{41}}
\abx@aux@cite{gitlab}
\abx@aux@segm{0}{0}{gitlab}
\abx@aux@cite{gitkraken}
\abx@aux@segm{0}{0}{gitkraken}
\@writefile{toc}{\defcounter {refsection}{0}\relax }\@writefile{toc}{\select@language{hungarian} \contentsline {section}{\numberline {5.8}Elk\IeC {\'e}sz\IeC {\'\i }tend\IeC {\H o} oldalak}{42}}
\@writefile{toc}{\defcounter {refsection}{0}\relax }\@writefile{toc}{\select@language{hungarian} \contentsline {subsection}{\numberline {5.8.1}Service-ek}{43}}
\@writefile{toc}{\defcounter {refsection}{0}\relax }\@writefile{toc}{\select@language{hungarian} \contentsline {subsection}{\numberline {5.8.2}Authentik\IeC {\'a}ci\IeC {\'o}}{43}}
\@writefile{toc}{\defcounter {refsection}{0}\relax }\@writefile{toc}{\select@language{hungarian} \contentsline {paragraph}{AuthService}{43}}
\@writefile{toc}{\defcounter {refsection}{0}\relax }\@writefile{toc}{\select@language{hungarian} \contentsline {paragraph}{Bejelentkez\IeC {\'e}s}{43}}
\@writefile{toc}{\defcounter {refsection}{0}\relax }\@writefile{toc}{\select@language{hungarian} \contentsline {paragraph}{Regisztr\IeC {\'a}ci\IeC {\'o}}{43}}
\@writefile{lof}{\defcounter {refsection}{0}\relax }\@writefile{lof}{\select@language{hungarian} \contentsline {figure}{\numberline {5.9}{\ignorespaces Fel\IeC {\"u}leti terv}}{44}}
\@writefile{lof}{\defcounter {refsection}{0}\relax }\@writefile{lof}{\select@language{hungarian} \contentsline {figure}{\numberline {5.10}{\ignorespaces Authentik\IeC {\'a}ci\IeC {\'o}hoz tartoz\IeC {\'o} oszt\IeC {\'a}lyok}}{45}}
\@writefile{toc}{\defcounter {refsection}{0}\relax }\@writefile{toc}{\select@language{hungarian} \contentsline {subsection}{\numberline {5.8.3}Tranzakci\IeC {\'o}k}{45}}
\@writefile{toc}{\defcounter {refsection}{0}\relax }\@writefile{toc}{\select@language{hungarian} \contentsline {paragraph}{TransactionService}{45}}
\@writefile{toc}{\defcounter {refsection}{0}\relax }\@writefile{toc}{\select@language{hungarian} \contentsline {paragraph}{Lista}{45}}
\@writefile{toc}{\defcounter {refsection}{0}\relax }\@writefile{toc}{\select@language{hungarian} \contentsline {paragraph}{L\IeC {\'e}trehoz\IeC {\'a}s/m\IeC {\'o}dos\IeC {\'\i }t\IeC {\'a}s}{46}}
\@writefile{lof}{\defcounter {refsection}{0}\relax }\@writefile{lof}{\select@language{hungarian} \contentsline {figure}{\numberline {5.11}{\ignorespaces Tranzakci\IeC {\'o} l\IeC {\'e}trehoz\IeC {\'a}sa, folyamat \IeC {\'a}bra}}{46}}
\@writefile{toc}{\defcounter {refsection}{0}\relax }\@writefile{toc}{\select@language{hungarian} \contentsline {paragraph}{Ism\IeC {\'e}tl\IeC {\H o}d\IeC {\H o} tranzakci\IeC {\'o}}{46}}
\@writefile{toc}{\defcounter {refsection}{0}\relax }\@writefile{toc}{\select@language{hungarian} \contentsline {subsection}{\numberline {5.8.4}Statisztik\IeC {\'a}k}{46}}
\@writefile{lof}{\defcounter {refsection}{0}\relax }\@writefile{lof}{\select@language{hungarian} \contentsline {figure}{\numberline {5.12}{\ignorespaces Tranzakci\IeC {\'o}hoz tartoz\IeC {\'o} oszt\IeC {\'a}lyok}}{47}}
\abx@aux@segm{0}{0}{ng2-charts_docs}
\@writefile{toc}{\defcounter {refsection}{0}\relax }\@writefile{toc}{\select@language{hungarian} \contentsline {paragraph}{StatisticsService}{48}}
\@writefile{toc}{\defcounter {refsection}{0}\relax }\@writefile{toc}{\select@language{hungarian} \contentsline {paragraph}{K\IeC {\"o}r diagram}{48}}
\@writefile{toc}{\defcounter {refsection}{0}\relax }\@writefile{toc}{\select@language{hungarian} \contentsline {paragraph}{Vonal diagram}{48}}
\@writefile{lof}{\defcounter {refsection}{0}\relax }\@writefile{lof}{\select@language{hungarian} \contentsline {figure}{\numberline {5.13}{\ignorespaces Statisztika oszt\IeC {\'a}lyai}}{49}}
\@writefile{lof}{\defcounter {refsection}{0}\relax }\@writefile{lof}{\select@language{hungarian} \contentsline {figure}{\numberline {5.14}{\ignorespaces Sp\IeC {\'o}rol\IeC {\'a}sok modellje}}{49}}
\@writefile{toc}{\defcounter {refsection}{0}\relax }\@writefile{toc}{\select@language{hungarian} \contentsline {subsection}{\numberline {5.8.5}Sp\IeC {\'o}rol\IeC {\'a}s}{49}}
\@writefile{toc}{\defcounter {refsection}{0}\relax }\@writefile{toc}{\select@language{hungarian} \contentsline {paragraph}{Lista}{50}}
\@writefile{toc}{\defcounter {refsection}{0}\relax }\@writefile{toc}{\select@language{hungarian} \contentsline {paragraph}{L\IeC {\'e}trehoz\IeC {\'a}s}{50}}
\@writefile{toc}{\defcounter {refsection}{0}\relax }\@writefile{toc}{\select@language{hungarian} \contentsline {paragraph}{R\IeC {\'e}szletek}{50}}
\@writefile{lof}{\defcounter {refsection}{0}\relax }\@writefile{lof}{\select@language{hungarian} \contentsline {figure}{\numberline {5.15}{\ignorespaces Sp\IeC {\'o}rol\IeC {\'a}sok oszt\IeC {\'a}lydiagrammjai}}{50}}
\@writefile{toc}{\defcounter {refsection}{0}\relax }\@writefile{toc}{\select@language{hungarian} \contentsline {subsection}{\numberline {5.8.6}Csoport}{50}}
\@writefile{lof}{\defcounter {refsection}{0}\relax }\@writefile{lof}{\select@language{hungarian} \contentsline {figure}{\numberline {5.16}{\ignorespaces Csoport oszt\IeC {\'a}lydiagrammjai}}{51}}
\@writefile{toc}{\defcounter {refsection}{0}\relax }\@writefile{toc}{\select@language{hungarian} \contentsline {subsection}{\numberline {5.8.7}Sp\IeC {\'o}rol\IeC {\'a}s mutat\IeC {\'o}}{51}}
\@writefile{toc}{\defcounter {refsection}{0}\relax }\@writefile{toc}{\select@language{hungarian} \contentsline {subsection}{\numberline {5.8.8}Kateg\IeC {\'o}ri\IeC {\'a}k}{51}}
\@writefile{toc}{\defcounter {refsection}{0}\relax }\@writefile{toc}{\select@language{hungarian} \contentsline {chapter}{\numberline {6}Implement\IeC {\'a}ci\IeC {\'o}}{53}}
\@writefile{lof}{\defcounter {refsection}{0}\relax }\@writefile{lof}{\select@language{hungarian} \addvspace {10\p@ }}
\@writefile{lot}{\defcounter {refsection}{0}\relax }\@writefile{lot}{\select@language{hungarian} \addvspace {10\p@ }}
\@writefile{toc}{\defcounter {refsection}{0}\relax }\@writefile{toc}{\select@language{hungarian} \contentsline {section}{\numberline {6.1}K\IeC {\"o}rnyezet elind\IeC {\'\i }t\IeC {\'a}sa}{53}}
\@writefile{toc}{\defcounter {refsection}{0}\relax }\@writefile{toc}{\select@language{hungarian} \contentsline {section}{\numberline {6.2}K\IeC {\"o}nyvt\IeC {\'a}rszerkezetek, f\IeC {\H o}bb f\IeC {\'a}jlok a k\IeC {\'e}sz alkalmaz\IeC {\'a}sban}{54}}
\@writefile{toc}{\defcounter {refsection}{0}\relax }\@writefile{toc}{\select@language{hungarian} \contentsline {subsection}{\numberline {6.2.1}Szerver}{54}}
\@writefile{toc}{\defcounter {refsection}{0}\relax }\@writefile{toc}{\select@language{hungarian} \contentsline {subsection}{\numberline {6.2.2}Alkalmaz\IeC {\'a}s}{54}}
\abx@aux@cite{forever}
\abx@aux@segm{0}{0}{forever}
\abx@aux@segm{0}{0}{ionic_app_scripts}
\abx@aux@segm{0}{0}{ionic_app_scripts}
\@writefile{toc}{\defcounter {refsection}{0}\relax }\@writefile{toc}{\select@language{hungarian} \contentsline {subsection}{\numberline {6.2.3}Git}{56}}
\@writefile{toc}{\defcounter {refsection}{0}\relax }\@writefile{toc}{\select@language{hungarian} \contentsline {section}{\numberline {6.3}Adatb\IeC {\'a}zis seed-el\IeC {\'e}se}{56}}
\@writefile{toc}{\defcounter {refsection}{0}\relax }\@writefile{toc}{\select@language{hungarian} \contentsline {section}{\numberline {6.4}Gulp}{56}}
\@writefile{toc}{\defcounter {refsection}{0}\relax }\@writefile{toc}{\select@language{hungarian} \contentsline {paragraph}{Copy}{57}}
\@writefile{toc}{\defcounter {refsection}{0}\relax }\@writefile{toc}{\select@language{hungarian} \contentsline {paragraph}{Watch}{57}}
\@writefile{toc}{\defcounter {refsection}{0}\relax }\@writefile{toc}{\select@language{hungarian} \contentsline {paragraph}{Build}{57}}
\@writefile{toc}{\defcounter {refsection}{0}\relax }\@writefile{toc}{\select@language{hungarian} \contentsline {paragraph}{Serve}{58}}
\@writefile{toc}{\defcounter {refsection}{0}\relax }\@writefile{toc}{\select@language{hungarian} \contentsline {paragraph}{Run}{58}}
\@writefile{toc}{\defcounter {refsection}{0}\relax }\@writefile{toc}{\select@language{hungarian} \contentsline {paragraph}{Dist}{58}}
\@writefile{toc}{\defcounter {refsection}{0}\relax }\@writefile{toc}{\select@language{hungarian} \contentsline {section}{\numberline {6.5}Az alkalmaz\IeC {\'a}s}{58}}
\@writefile{toc}{\defcounter {refsection}{0}\relax }\@writefile{toc}{\select@language{hungarian} \contentsline {subsection}{\numberline {6.5.1}Sp\IeC {\'o}rol\IeC {\'a}sok sz\IeC {\'a}m\IeC {\'\i }t\IeC {\'a}s\IeC {\'a}nak algoritmusa}{58}}
\@writefile{toc}{\defcounter {refsection}{0}\relax }\@writefile{toc}{\select@language{hungarian} \contentsline {subsection}{\numberline {6.5.2}Fejleszt\IeC {\'e}s sor\IeC {\'a}n alkalmazott v\IeC {\'a}ltoztat\IeC {\'a}sok}{59}}
\@writefile{toc}{\defcounter {refsection}{0}\relax }\@writefile{toc}{\select@language{hungarian} \contentsline {subsubsection}{Tranzakci\IeC {\'o}k}{59}}
\@writefile{toc}{\defcounter {refsection}{0}\relax }\@writefile{toc}{\select@language{hungarian} \contentsline {subsubsection}{Server Service}{60}}
\@writefile{toc}{\defcounter {refsection}{0}\relax }\@writefile{toc}{\select@language{hungarian} \contentsline {subsubsection}{Sync Service}{60}}
\@writefile{toc}{\defcounter {refsection}{0}\relax }\@writefile{toc}{\select@language{hungarian} \contentsline {section}{\numberline {6.6}Adatb\IeC {\'a}zissal kapcsolatos megfontol\IeC {\'a}sok, sk\IeC {\'a}l\IeC {\'a}z\IeC {\'o}d\IeC {\'a}s}{60}}
\abx@aux@segm{0}{0}{mongo_aggregation}
\abx@aux@cite{mongo_scale}
\abx@aux@segm{0}{0}{mongo_scale}
\abx@aux@cite{mongo_scale2}
\abx@aux@segm{0}{0}{mongo_scale2}
\@writefile{toc}{\defcounter {refsection}{0}\relax }\@writefile{toc}{\select@language{hungarian} \contentsline {section}{\numberline {6.7}A szerver}{61}}
\@writefile{toc}{\defcounter {refsection}{0}\relax }\@writefile{toc}{\select@language{hungarian} \contentsline {subsection}{\numberline {6.7.1}Alkalmazott nyelvi elemek}{61}}
\@writefile{toc}{\defcounter {refsection}{0}\relax }\@writefile{toc}{\select@language{hungarian} \contentsline {subsection}{\numberline {6.7.2}Fejleszt\IeC {\'e}s sor\IeC {\'a}n alkalmazott v\IeC {\'a}ltoztat\IeC {\'a}sok}{62}}
\@writefile{toc}{\defcounter {refsection}{0}\relax }\@writefile{toc}{\select@language{hungarian} \contentsline {subsubsection}{Controller}{62}}
\@writefile{toc}{\defcounter {refsection}{0}\relax }\@writefile{toc}{\select@language{hungarian} \contentsline {paragraph}{OK}{62}}
\@writefile{toc}{\defcounter {refsection}{0}\relax }\@writefile{toc}{\select@language{hungarian} \contentsline {paragraph}{DATA}{62}}
\@writefile{toc}{\defcounter {refsection}{0}\relax }\@writefile{toc}{\select@language{hungarian} \contentsline {paragraph}{ERROR}{62}}
\@writefile{toc}{\defcounter {refsection}{0}\relax }\@writefile{toc}{\select@language{hungarian} \contentsline {subsubsection}{Tranzakci\IeC {\'o}k}{62}}
\@writefile{toc}{\defcounter {refsection}{0}\relax }\@writefile{toc}{\select@language{hungarian} \contentsline {subsubsection}{Node Scheduler}{63}}
\@writefile{toc}{\defcounter {refsection}{0}\relax }\@writefile{toc}{\select@language{hungarian} \contentsline {subsection}{\numberline {6.7.3}Deploy}{63}}
\@writefile{toc}{\defcounter {refsection}{0}\relax }\@writefile{toc}{\select@language{hungarian} \contentsline {section}{\numberline {6.8}Tov\IeC {\'a}bbfejleszt\IeC {\'e}si \IeC {\"o}tletek}{64}}
\@writefile{toc}{\defcounter {refsection}{0}\relax }\@writefile{toc}{\select@language{hungarian} \contentsline {paragraph}{Docker}{64}}
\@writefile{toc}{\defcounter {refsection}{0}\relax }\@writefile{toc}{\select@language{hungarian} \contentsline {paragraph}{Social Media Login}{64}}
\@writefile{toc}{\defcounter {refsection}{0}\relax }\@writefile{toc}{\select@language{hungarian} \contentsline {paragraph}{Soksz\IeC {\'\i }n\IeC {\H u} tranzakci\IeC {\'o} felvitel}{64}}
\@writefile{toc}{\defcounter {refsection}{0}\relax }\@writefile{toc}{\select@language{hungarian} \contentsline {paragraph}{P\IeC {\'e}nznem}{64}}
\@writefile{toc}{\defcounter {refsection}{0}\relax }\@writefile{toc}{\select@language{hungarian} \contentsline {chapter}{\numberline {7}Tesztel\IeC {\'e}si terv}{67}}
\@writefile{lof}{\defcounter {refsection}{0}\relax }\@writefile{lof}{\select@language{hungarian} \addvspace {10\p@ }}
\@writefile{lot}{\defcounter {refsection}{0}\relax }\@writefile{lot}{\select@language{hungarian} \addvspace {10\p@ }}
\@writefile{toc}{\defcounter {refsection}{0}\relax }\@writefile{toc}{\select@language{hungarian} \contentsline {section}{\numberline {7.1}Szerver}{67}}
\@writefile{toc}{\defcounter {refsection}{0}\relax }\@writefile{toc}{\select@language{hungarian} \contentsline {subsection}{\numberline {7.1.1}Router}{67}}
\@writefile{toc}{\defcounter {refsection}{0}\relax }\@writefile{toc}{\select@language{hungarian} \contentsline {subsection}{\numberline {7.1.2}Controllerek, Modellek}{68}}
\@writefile{toc}{\defcounter {refsection}{0}\relax }\@writefile{toc}{\select@language{hungarian} \contentsline {subsubsection}{TransactionController}{69}}
\@writefile{toc}{\defcounter {refsection}{0}\relax }\@writefile{toc}{\select@language{hungarian} \contentsline {subsubsection}{UserController}{69}}
\@writefile{toc}{\defcounter {refsection}{0}\relax }\@writefile{toc}{\select@language{hungarian} \contentsline {subsubsection}{GroupController}{70}}
\@writefile{toc}{\defcounter {refsection}{0}\relax }\@writefile{toc}{\select@language{hungarian} \contentsline {subsubsection}{StatisticsController}{70}}
\@writefile{toc}{\defcounter {refsection}{0}\relax }\@writefile{toc}{\select@language{hungarian} \contentsline {subsection}{\numberline {7.1.3}SavingsController}{71}}
\@writefile{toc}{\defcounter {refsection}{0}\relax }\@writefile{toc}{\select@language{hungarian} \contentsline {subsection}{\numberline {7.1.4}CategoryController}{72}}
\@writefile{toc}{\defcounter {refsection}{0}\relax }\@writefile{toc}{\select@language{hungarian} \contentsline {subsection}{\numberline {7.1.5}RepeatingTransactionsController}{72}}
\@writefile{toc}{\defcounter {refsection}{0}\relax }\@writefile{toc}{\select@language{hungarian} \contentsline {section}{\numberline {7.2}Alkalmaz\IeC {\'a}s}{72}}
\@writefile{toc}{\defcounter {refsection}{0}\relax }\@writefile{toc}{\select@language{hungarian} \contentsline {subsection}{\numberline {7.2.1}Bejelentkez\IeC {\'e}s, Regisztr\IeC {\'a}ci\IeC {\'o}}{72}}
\@writefile{toc}{\defcounter {refsection}{0}\relax }\@writefile{toc}{\select@language{hungarian} \contentsline {subsubsection}{Service}{72}}
\@writefile{toc}{\defcounter {refsection}{0}\relax }\@writefile{toc}{\select@language{hungarian} \contentsline {subsubsection}{Fel\IeC {\"u}let}{73}}
\@writefile{toc}{\defcounter {refsection}{0}\relax }\@writefile{toc}{\select@language{hungarian} \contentsline {subsection}{\numberline {7.2.2}Tranzakci\IeC {\'o}k, Ism\IeC {\'e}tl\IeC {\H o}d\IeC {\H o} tranzakci\IeC {\'o}k}{73}}
\@writefile{toc}{\defcounter {refsection}{0}\relax }\@writefile{toc}{\select@language{hungarian} \contentsline {subsubsection}{Service}{73}}
\@writefile{toc}{\defcounter {refsection}{0}\relax }\@writefile{toc}{\select@language{hungarian} \contentsline {subsubsection}{Fel\IeC {\"u}let}{73}}
\@writefile{toc}{\defcounter {refsection}{0}\relax }\@writefile{toc}{\select@language{hungarian} \contentsline {subsection}{\numberline {7.2.3}Csoportok}{74}}
\@writefile{toc}{\defcounter {refsection}{0}\relax }\@writefile{toc}{\select@language{hungarian} \contentsline {subsubsection}{Service}{74}}
\@writefile{toc}{\defcounter {refsection}{0}\relax }\@writefile{toc}{\select@language{hungarian} \contentsline {subsubsection}{Fel\IeC {\"u}let}{74}}
\@writefile{toc}{\defcounter {refsection}{0}\relax }\@writefile{toc}{\select@language{hungarian} \contentsline {subsection}{\numberline {7.2.4}Statisztik\IeC {\'a}k}{74}}
\@writefile{toc}{\defcounter {refsection}{0}\relax }\@writefile{toc}{\select@language{hungarian} \contentsline {subsubsection}{Service}{74}}
\@writefile{toc}{\defcounter {refsection}{0}\relax }\@writefile{toc}{\select@language{hungarian} \contentsline {subsubsection}{Fel\IeC {\"u}let}{75}}
\@writefile{toc}{\defcounter {refsection}{0}\relax }\@writefile{toc}{\select@language{hungarian} \contentsline {subsection}{\numberline {7.2.5}Sp\IeC {\'o}rol\IeC {\'a}sok}{75}}
\@writefile{toc}{\defcounter {refsection}{0}\relax }\@writefile{toc}{\select@language{hungarian} \contentsline {subsubsection}{Service}{75}}
\@writefile{toc}{\defcounter {refsection}{0}\relax }\@writefile{toc}{\select@language{hungarian} \contentsline {subsubsection}{Fel\IeC {\"u}let}{75}}
\abx@aux@refcontextdefaultsdone
\abx@aux@defaultrefcontext{0}{JS_history}{none/global/}
\abx@aux@defaultrefcontext{0}{JS_evolution}{none/global/}
\abx@aux@defaultrefcontext{0}{ChromeV8}{none/global/}
\abx@aux@defaultrefcontext{0}{NodeJSAbout}{none/global/}
\abx@aux@defaultrefcontext{0}{JS_MODULARITY}{none/global/}
\abx@aux@defaultrefcontext{0}{webpack}{none/global/}
\abx@aux@defaultrefcontext{0}{transpile_to_js}{none/global/}
\abx@aux@defaultrefcontext{0}{napo_font}{none/global/}
\abx@aux@defaultrefcontext{0}{angular_docs}{none/global/}
\abx@aux@defaultrefcontext{0}{angular}{none/global/}
\abx@aux@defaultrefcontext{0}{ionic_docs}{none/global/}
\abx@aux@defaultrefcontext{0}{electron_docs}{none/global/}
\abx@aux@defaultrefcontext{0}{cordova_docs}{none/global/}
\abx@aux@defaultrefcontext{0}{express_docs}{none/global/}
\abx@aux@defaultrefcontext{0}{jwt_docs}{none/global/}
\abx@aux@defaultrefcontext{0}{passport_docs}{none/global/}
\abx@aux@defaultrefcontext{0}{bcrypt_docs}{none/global/}
\abx@aux@defaultrefcontext{0}{mongoose_docs}{none/global/}
\abx@aux@defaultrefcontext{0}{node_schedule_docs}{none/global/}
\abx@aux@defaultrefcontext{0}{jasmine_docs}{none/global/}
\abx@aux@defaultrefcontext{0}{karma_docs}{none/global/}
\abx@aux@defaultrefcontext{0}{mocha_docs}{none/global/}
\abx@aux@defaultrefcontext{0}{chai_docs}{none/global/}
\abx@aux@defaultrefcontext{0}{sinon_docs}{none/global/}
\abx@aux@defaultrefcontext{0}{lodash_docs}{none/global/}
\abx@aux@defaultrefcontext{0}{moment_docs}{none/global/}
\abx@aux@defaultrefcontext{0}{gulp_docs}{none/global/}
\abx@aux@defaultrefcontext{0}{mongodb}{none/global/}
\abx@aux@defaultrefcontext{0}{mongo_aggregation}{none/global/}
\abx@aux@defaultrefcontext{0}{auth}{none/global/}
\abx@aux@defaultrefcontext{0}{ionic_app_scripts}{none/global/}
\abx@aux@defaultrefcontext{0}{ng2-charts_docs}{none/global/}
\abx@aux@defaultrefcontext{0}{node_7}{none/global/}
\abx@aux@defaultrefcontext{0}{mongo_install}{none/global/}
\abx@aux@defaultrefcontext{0}{cordova_install}{none/global/}
\abx@aux@defaultrefcontext{0}{ionic_start}{none/global/}
\abx@aux@defaultrefcontext{0}{clean_code}{none/global/}
\abx@aux@defaultrefcontext{0}{git}{none/global/}
\abx@aux@defaultrefcontext{0}{gitlab}{none/global/}
\abx@aux@defaultrefcontext{0}{gitkraken}{none/global/}
\abx@aux@defaultrefcontext{0}{forever}{none/global/}
\abx@aux@defaultrefcontext{0}{mongo_scale}{none/global/}
\abx@aux@defaultrefcontext{0}{mongo_scale2}{none/global/}
